%YAML 1.1
%TAG !u! tag:unity3d.com,2011:
--- !u!74 &7400000
AnimationClip:
  m_ObjectHideFlags: 0
  m_CorrespondingSourceObject: {fileID: 0}
  m_PrefabInstance: {fileID: 0}
  m_PrefabAsset: {fileID: 0}
  m_Name: ZombieWithCone
  serializedVersion: 6
  m_Legacy: 0
  m_Compressed: 0
  m_UseHighQualityCurve: 1
  m_RotationCurves: []
  m_CompressedRotationCurves: []
  m_EulerCurves: []
  m_PositionCurves: []
  m_ScaleCurves: []
  m_FloatCurves: []
  m_PPtrCurves:
  - curve:
    - time: 0
      value: {fileID: 21300000, guid: 07030d05c962c1c409ebb9e9d040b901, type: 3}
    - time: 0.083333336
      value: {fileID: 21300000, guid: 1948808162e4fa1439a2307904d97402, type: 3}
    - time: 0.16666667
      value: {fileID: 21300000, guid: 12835128edec3d649ad2359e2e32ec52, type: 3}
    - time: 0.25
      value: {fileID: 21300000, guid: df0502cc92ac0d642a575fce6eda2fdb, type: 3}
    - time: 0.33333334
      value: {fileID: 21300000, guid: 2e884951b0a653f42b8ca66fa4d3861c, type: 3}
    - time: 0.41666666
      value: {fileID: 21300000, guid: b1019745c57b65444b7ee30843aa98d1, type: 3}
    - time: 0.5
      value: {fileID: 21300000, guid: 5c73e124ca3781546aa9a50c4ccd62b3, type: 3}
    - time: 0.5833333
      value: {fileID: 21300000, guid: a0b188ded3c500a4fbc4e038dedaa053, type: 3}
    - time: 0.6666667
      value: {fileID: 21300000, guid: 6b3b31e8b9432c446a53d531bff43371, type: 3}
    - time: 0.75
      value: {fileID: 21300000, guid: 551c0e62b05def444a7a477c3becf8ef, type: 3}
    - time: 0.8333333
      value: {fileID: 21300000, guid: 5aa4b60bc1de96042a0ae951cfe338ec, type: 3}
    - time: 0.9166667
      value: {fileID: 21300000, guid: d371d612d54dd9e4a92162ef5e99ae0f, type: 3}
    - time: 1
      value: {fileID: 21300000, guid: e9a4626b4b8f290439b665f8025908a0, type: 3}
    - time: 1.0833334
      value: {fileID: 21300000, guid: 0deda9477788ed4409fed11466080171, type: 3}
    - time: 1.1666666
      value: {fileID: 21300000, guid: 1938dcbc2db852a42aed8b3512d1567c, type: 3}
    - time: 1.25
      value: {fileID: 21300000, guid: 842f71842f015214f95a855eeee3bd2e, type: 3}
    - time: 1.3333334
      value: {fileID: 21300000, guid: 845ab67f6ba559544a1b3a59b97b7656, type: 3}
    - time: 1.4166666
      value: {fileID: 21300000, guid: bd4338731b32c254781a452d5ac89fd9, type: 3}
    - time: 1.5
      value: {fileID: 21300000, guid: ac5e7feaebfbc8241b6d4b126b83e788, type: 3}
    - time: 1.5833334
      value: {fileID: 21300000, guid: d3bc236a90ec8264ea761ea67cc77854, type: 3}
    - time: 1.6666666
      value: {fileID: 21300000, guid: 436850e43bd76fc49858789bccde452b, type: 3}
    - time: 1.75
      value: {fileID: 21300000, guid: a4946af268850194abd74a46277b9ccd, type: 3}
    - time: 1.8333334
      value: {fileID: 21300000, guid: d30e5a562488cb947a8e1c6ff6f78f60, type: 3}
    - time: 1.9166666
      value: {fileID: 21300000, guid: 8df87f1478c0c584c82f9032a74d6ce4, type: 3}
    - time: 2
      value: {fileID: 21300000, guid: 7c110383b9dbdb245b29c071079da89f, type: 3}
    - time: 2.0833333
      value: {fileID: 21300000, guid: 9d0d7e4e9b1989944b4a42d7341bc0f7, type: 3}
    - time: 2.1666667
      value: {fileID: 21300000, guid: b6e95b0c9a3252f4c89f8f30255536f6, type: 3}
    - time: 2.25
      value: {fileID: 21300000, guid: 9eb5b3a1cac59c44295ebf7b3040435f, type: 3}
    - time: 2.3333333
      value: {fileID: 21300000, guid: bba9f58f967022249997d24f0362c9b7, type: 3}
    - time: 2.4166667
      value: {fileID: 21300000, guid: c781953c3012b174998d449988549d7a, type: 3}
    - time: 2.5
      value: {fileID: 21300000, guid: 071709c9d53e9e4439019fdc5d9bee91, type: 3}
    - time: 2.5833333
      value: {fileID: 21300000, guid: e513e8ce421b8d34b9400ae72588188c, type: 3}
    - time: 2.6666667
      value: {fileID: 21300000, guid: 21f4e723dfd2e0b4b8b28d7399517856, type: 3}
    - time: 2.75
      value: {fileID: 21300000, guid: d9502b87971eead4a8ef67419fbdfc84, type: 3}
    - time: 2.8333333
      value: {fileID: 21300000, guid: 508eb5b663117aa4ba681ba876510a5c, type: 3}
    - time: 2.9166667
      value: {fileID: 21300000, guid: 4c1f10ff2fbb35d4bbb79ce78e7e08c6, type: 3}
    - time: 3
      value: {fileID: 21300000, guid: cd550345e667874419097a8d7e684e7f, type: 3}
    - time: 3.0833333
      value: {fileID: 21300000, guid: 751eca674a68d714ab4acbdd2d225ddd, type: 3}
    - time: 3.1666667
      value: {fileID: 21300000, guid: adfc8bf6959925945a1c5ad138ccb8fb, type: 3}
    - time: 3.25
      value: {fileID: 21300000, guid: d051d7cf7800f9045a3ad79b00517aca, type: 3}
    - time: 3.3333333
      value: {fileID: 21300000, guid: 06de89663ee0ef341b7d3db0d7398ce9, type: 3}
    - time: 3.4166667
      value: {fileID: 21300000, guid: f2451fa723ac7f049a81a770da37c631, type: 3}
    - time: 3.5
      value: {fileID: 21300000, guid: 1398a275602b2fc49aaeeb18de8c3ab5, type: 3}
    - time: 3.5833333
      value: {fileID: 21300000, guid: 3e991690aee908c4aa58f007e6699a77, type: 3}
    - time: 3.6666667
      value: {fileID: 21300000, guid: 34e5b19b82dd6794aa4fda4b5d5fe5cf, type: 3}
    - time: 3.75
      value: {fileID: 21300000, guid: dc277ec737060e44da5c8e7f3db8ac30, type: 3}
    - time: 3.8333333
      value: {fileID: 21300000, guid: e95a705af618e6f4793100c15feab835, type: 3}
    - time: 3.9166667
      value: {fileID: 21300000, guid: 0279b98bf2cdbf14a8e32c0d17c7ab93, type: 3}
    - time: 4
      value: {fileID: 21300000, guid: 4b583e2c8d9337d40ba48cc4a47c612b, type: 3}
    - time: 4.0833335
      value: {fileID: 21300000, guid: 88cec574217544741a1553611175f1ed, type: 3}
    - time: 4.1666665
      value: {fileID: 21300000, guid: 3d1641c15bbfe6f47a39261f2581e00c, type: 3}
    attribute: m_Sprite
    path: 
    classID: 212
    script: {fileID: 0}
  m_SampleRate: 12
  m_WrapMode: 0
  m_Bounds:
    m_Center: {x: 0, y: 0, z: 0}
    m_Extent: {x: 0, y: 0, z: 0}
  m_ClipBindingConstant:
    genericBindings:
    - serializedVersion: 2
      path: 0
      attribute: 0
      script: {fileID: 0}
      typeID: 212
      customType: 23
      isPPtrCurve: 1
    pptrCurveMapping:
    - {fileID: 21300000, guid: 07030d05c962c1c409ebb9e9d040b901, type: 3}
    - {fileID: 21300000, guid: 1948808162e4fa1439a2307904d97402, type: 3}
    - {fileID: 21300000, guid: 12835128edec3d649ad2359e2e32ec52, type: 3}
    - {fileID: 21300000, guid: df0502cc92ac0d642a575fce6eda2fdb, type: 3}
    - {fileID: 21300000, guid: 2e884951b0a653f42b8ca66fa4d3861c, type: 3}
    - {fileID: 21300000, guid: b1019745c57b65444b7ee30843aa98d1, type: 3}
    - {fileID: 21300000, guid: 5c73e124ca3781546aa9a50c4ccd62b3, type: 3}
    - {fileID: 21300000, guid: a0b188ded3c500a4fbc4e038dedaa053, type: 3}
    - {fileID: 21300000, guid: 6b3b31e8b9432c446a53d531bff43371, type: 3}
    - {fileID: 21300000, guid: 551c0e62b05def444a7a477c3becf8ef, type: 3}
    - {fileID: 21300000, guid: 5aa4b60bc1de96042a0ae951cfe338ec, type: 3}
    - {fileID: 21300000, guid: d371d612d54dd9e4a92162ef5e99ae0f, type: 3}
    - {fileID: 21300000, guid: e9a4626b4b8f290439b665f8025908a0, type: 3}
    - {fileID: 21300000, guid: 0deda9477788ed4409fed11466080171, type: 3}
    - {fileID: 21300000, guid: 1938dcbc2db852a42aed8b3512d1567c, type: 3}
    - {fileID: 21300000, guid: 842f71842f015214f95a855eeee3bd2e, type: 3}
    - {fileID: 21300000, guid: 845ab67f6ba559544a1b3a59b97b7656, type: 3}
    - {fileID: 21300000, guid: bd4338731b32c254781a452d5ac89fd9, type: 3}
    - {fileID: 21300000, guid: ac5e7feaebfbc8241b6d4b126b83e788, type: 3}
    - {fileID: 21300000, guid: d3bc236a90ec8264ea761ea67cc77854, type: 3}
    - {fileID: 21300000, guid: 436850e43bd76fc49858789bccde452b, type: 3}
    - {fileID: 21300000, guid: a4946af268850194abd74a46277b9ccd, type: 3}
    - {fileID: 21300000, guid: d30e5a562488cb947a8e1c6ff6f78f60, type: 3}
    - {fileID: 21300000, guid: 8df87f1478c0c584c82f9032a74d6ce4, type: 3}
    - {fileID: 21300000, guid: 7c110383b9dbdb245b29c071079da89f, type: 3}
    - {fileID: 21300000, guid: 9d0d7e4e9b1989944b4a42d7341bc0f7, type: 3}
    - {fileID: 21300000, guid: b6e95b0c9a3252f4c89f8f30255536f6, type: 3}
    - {fileID: 21300000, guid: 9eb5b3a1cac59c44295ebf7b3040435f, type: 3}
    - {fileID: 21300000, guid: bba9f58f967022249997d24f0362c9b7, type: 3}
    - {fileID: 21300000, guid: c781953c3012b174998d449988549d7a, type: 3}
    - {fileID: 21300000, guid: 071709c9d53e9e4439019fdc5d9bee91, type: 3}
    - {fileID: 21300000, guid: e513e8ce421b8d34b9400ae72588188c, type: 3}
    - {fileID: 21300000, guid: 21f4e723dfd2e0b4b8b28d7399517856, type: 3}
    - {fileID: 21300000, guid: d9502b87971eead4a8ef67419fbdfc84, type: 3}
    - {fileID: 21300000, guid: 508eb5b663117aa4ba681ba876510a5c, type: 3}
    - {fileID: 21300000, guid: 4c1f10ff2fbb35d4bbb79ce78e7e08c6, type: 3}
    - {fileID: 21300000, guid: cd550345e667874419097a8d7e684e7f, type: 3}
    - {fileID: 21300000, guid: 751eca674a68d714ab4acbdd2d225ddd, type: 3}
    - {fileID: 21300000, guid: adfc8bf6959925945a1c5ad138ccb8fb, type: 3}
    - {fileID: 21300000, guid: d051d7cf7800f9045a3ad79b00517aca, type: 3}
    - {fileID: 21300000, guid: 06de89663ee0ef341b7d3db0d7398ce9, type: 3}
    - {fileID: 21300000, guid: f2451fa723ac7f049a81a770da37c631, type: 3}
    - {fileID: 21300000, guid: 1398a275602b2fc49aaeeb18de8c3ab5, type: 3}
    - {fileID: 21300000, guid: 3e991690aee908c4aa58f007e6699a77, type: 3}
    - {fileID: 21300000, guid: 34e5b19b82dd6794aa4fda4b5d5fe5cf, type: 3}
    - {fileID: 21300000, guid: dc277ec737060e44da5c8e7f3db8ac30, type: 3}
    - {fileID: 21300000, guid: e95a705af618e6f4793100c15feab835, type: 3}
    - {fileID: 21300000, guid: 0279b98bf2cdbf14a8e32c0d17c7ab93, type: 3}
    - {fileID: 21300000, guid: 4b583e2c8d9337d40ba48cc4a47c612b, type: 3}
    - {fileID: 21300000, guid: 88cec574217544741a1553611175f1ed, type: 3}
    - {fileID: 21300000, guid: 3d1641c15bbfe6f47a39261f2581e00c, type: 3}
  m_AnimationClipSettings:
    serializedVersion: 2
    m_AdditiveReferencePoseClip: {fileID: 0}
    m_AdditiveReferencePoseTime: 0
    m_StartTime: 0
    m_StopTime: 4.25
    m_OrientationOffsetY: 0
    m_Level: 0
    m_CycleOffset: 0
    m_HasAdditiveReferencePose: 0
    m_LoopTime: 1
    m_LoopBlend: 0
    m_LoopBlendOrientation: 0
    m_LoopBlendPositionY: 0
    m_LoopBlendPositionXZ: 0
    m_KeepOriginalOrientation: 0
    m_KeepOriginalPositionY: 1
    m_KeepOriginalPositionXZ: 0
    m_HeightFromFeet: 0
    m_Mirror: 0
  m_EditorCurves: []
  m_EulerEditorCurves: []
  m_HasGenericRootTransform: 0
  m_HasMotionFloatCurves: 0
  m_Events: []
